^	J	0.0249722530522
X	J	0.000554938956715
L	V	0.00275373721479
Y	J	0.000554938956715
Z	J	0.000554938956715
W	J	0.000554938956715
T	J	0.00332963374029
U	J	0.162597114317
M	V	0.000983477576711
V	J	0.000554938956715
W	G	0.00556558363418
V	G	0.000977737665463
U	G	0.0439981949458
T	G	0.0145908543923
S	G	0.0478339350181
R	G	0.0804001203369
Q	G	0.000676895306859
P	G	0.0076714801444
^	G	0.147187123947
Z	G	0.000526474127557
Y	G	0.0120336943442
Q	J	0.00110987791343
G	G	0.0294073405535
F	G	0.00511432009627
E	G	0.175090252708
D	G	0.00609205776173
C	G	0.00699458483755
B	G	0.00895006016847
A	G	0.0994283995187
O	G	0.107325511432
N	G	0.0233904933815
M	G	0.00797232250301
L	G	0.0445246690734
K	G	0.00075210589651
J	G	0.00135379061372
I	G	0.0603941034898
H	G	0.0615974729242
L	J	0.00166481687014
M	J	0.00277469478357
N	J	0.000554938956715
T	W	0.0111004522406
H	J	0.00110987791343
R	W	0.0264492257092
Q	W	0.000137042620255
P	W	0.00630396053173
E	J	0.154827968923
F	J	0.00277469478357
Z	W	0.00054817048102
B	J	0.00221975582686
X	W	0.000411127860765
L	Z	0.0197152245345
M	Z	0.0065717415115
N	Z	0.00547645125958
O	Z	0.101861993428
P	J	0.00610432852386
I	Z	0.100766703176
J	Z	0.00109529025192
K	Z	0.00273822562979
D	Z	0.00109529025192
E	Z	0.300657174151
F	Z	0.00164293537788
G	Z	0.000547645125958
A	Z	0.118291347207
B	Z	0.00383351588171
C	Z	0.00328587075575
^	Z	0.141292442497
X	Z	0.00109529025192
Y	Z	0.0432639649507
Z	Z	0.092004381161
T	Z	0.00821467688938
U	Z	0.0202628696605
V	Z	0.00219058050383
W	Z	0.00164293537788
P	Z	0.00383351588171
Q	Z	0.00219058050383
R	Z	0.00383351588171
S	Z	0.00876232201533
E	M	0.201527203309
D	M	0.00489977728285
G	M	0.00178173719376
F	M	0.00400890868597
A	M	0.218644607063
C	M	0.0117085587019
B	M	0.0351256761056
M	M	0.0271078587337
L	M	0.00598154629335
O	M	0.121285396118
N	M	0.0075723830735
I	M	0.112567610563
H	M	0.00292713967547
K	M	0.00076360165447
J	M	0.000827235125676
U	M	0.0322621699014
T	M	0.00814508431435
W	M	0.00146356983773
Q	M	0.000190900413618
P	M	0.0523703468024
S	M	0.0376073814827
R	M	0.00846325167038
^	M	0.0814508431435
Y	M	0.0188991409481
X	M	0.000890868596882
Z	M	0.000318167356029
P	F	0.00510204081633
Q	F	0.000115955473098
R	F	0.0791975881262
S	F	0.0242346938776
T	F	0.0701530612245
U	F	0.0381493506494
V	F	0.00127551020408
W	F	0.00498608534323
X	F	0.000115955473098
Y	F	0.00742115027829
Z	F	0.000579777365492
^	F	0.077806122449
A	F	0.112824675325
B	F	0.00579777365492
C	F	0.00765306122449
D	F	0.00649350649351
E	F	0.104243970315
F	F	0.0804730983302
G	F	0.00533395176252
H	F	0.00382653061224
I	F	0.129986085343
J	F	0.00150742115028
K	F	0.00173933209647
L	F	0.0851113172542
M	F	0.00649350649351
N	F	0.00382653061224
O	F	0.135551948052
V	E	0.0117781488969
R	J	0.0122086570477
Z	S	0.000266435755678
Y	S	0.00848153822243
X	S	0.000222029796399
^	S	0.340660316614
S	S	0.0499345012101
R	S	0.00326383800706
Q	S	0.00346366482382
P	S	0.0295077599414
W	S	0.00992473189902
V	S	0.000754901307756
U	S	0.022935677968
T	S	0.135771220498
K	S	0.0132773818246
J	S	0.000444059592797
I	S	0.0494682386376
H	S	0.053331557095
O	S	0.0470037078976
N	S	0.0107018361864
M	S	0.0139656741935
L	S	0.017140700282
C	S	0.0266879815271
B	S	0.00575057172673
A	S	0.0526210617465
G	S	0.00233131286219
F	S	0.00379670951842
E	S	0.0945180843269
D	S	0.00377450653878
I	Y	0.0199958123953
H	Y	0.0104690117253
K	Y	0.00376884422111
J	Y	0.0035594639866
M	Y	0.0284757118928
L	Y	0.0298366834171
O	Y	0.0753768844221
N	Y	0.0249162479062
A	Y	0.0471105527638
C	Y	0.026067839196
B	Y	0.0235552763819
E	Y	0.0818676716918
D	Y	0.0203098827471
G	Y	0.0116206030151
F	Y	0.0119346733668
X	Y	0.00125628140704
Z	Y	0.00282663316583
^	Y	0.402219430486
Q	Y	0.00136097152429
P	Y	0.0232412060302
S	Y	0.0766331658291
R	Y	0.0233458961474
U	Y	0.00879396984925
T	Y	0.0253350083752
W	Y	0.0116206030151
V	Y	0.00209380234506
F	L	0.00934191405439
G	L	0.00422116116532
D	L	0.0304131201993
E	L	0.204830115563
B	L	0.00809632551381
C	L	0.00771572901529
A	L	0.137499135008
N	L	0.002837173898
O	L	0.0999930800637
L	L	0.10383364473
M	L	0.0107259013217
J	L	0.000899591723756
H	L	0.00259497612622
I	L	0.11781191613
V	L	0.00595114524946
W	L	0.00266417548959
T	L	0.0266763545775
U	L	0.0318317071483
R	L	0.00439415957373
S	L	0.0386824441215
P	L	0.00885751851083
Q	L	0.000172998408415
^	L	0.093522939589
Z	L	0.000311397135146
X	L	0.000553594906927
Y	L	0.0343574839111
X	G	0.000150421179302
K	L	0.0112102968653
T	R	0.0488191315542
U	R	0.0279744516512
V	R	0.00443135119077
W	R	0.00346586126652
P	R	0.0105708768629
Q	R	0.000445610734267
R	R	0.0226766351438
S	R	0.0702579591028
^	R	0.143709461801
X	R	0.000470366886171
Y	R	0.0259939594989
Z	R	0.000742684557112
D	R	0.0328514135763
E	R	0.17190671882
F	R	0.00628806258355
G	R	0.0136653958509
A	R	0.118136356885
B	R	0.0121552705847
C	R	0.0148041788384
L	R	0.0153488141803
M	R	0.0192355300292
N	R	0.0235678566124
O	R	0.095930088627
H	R	0.0046541565579
I	R	0.0968955785513
J	R	0.000891221468535
K	R	0.0141110065851
S	J	0.0105438401776
X	I	0.00629135481072
C	V	0.00314712824548
G	V	0.0013768686074
H	V	0.0013768686074
P	I	0.0239179954442
J	V	0.000590086546027
M	E	0.0237613899388
L	E	0.051609973338
O	E	0.0130526500835
N	E	0.0787846825467
I	E	0.0134774838124
H	E	0.0061967126659
K	E	0.00366235973162
J	E	0.0017139843544
E	E	0.0433330403446
D	E	0.0762796284902
G	E	0.0131258972781
F	E	0.0111921713398
A	E	0.0708300372096
C	E	0.0245671090797
B	E	0.013946265858
^	E	0.155620989716
Y	E	0.0146787378043
X	E	0.00940493979081
Z	E	0.00240250798394
U	E	0.00577187893704
T	E	0.0543201195394
W	E	0.0138290703466
V	I	0.0230502223669
Q	E	0.00131844950338
P	E	0.0185901379977
S	E	0.11558407313
R	E	0.151167560282
P	V	0.00334382376082
Q	V	0.000196695515342
R	V	0.00472069236821
J	I	0.00111183425534
T	V	0.00255704169945
U	V	0.00590086546027
V	V	0.0037372147915
W	V	0.00157356412274
X	V	0.000196695515342
Z	V	0.000196695515342
^	V	0.037372147915
J	X	0.00160944206009
K	X	0.00321888412017
H	X	0.0182403433476
I	X	0.114270386266
N	X	0.00375536480687
L	X	0.0187768240343
M	X	0.0144849785408
B	X	0.012339055794
C	X	0.0375536480687
A	X	0.0638412017167
F	X	0.012339055794
G	X	0.00321888412017
D	X	0.00536480686695
E	X	0.150214592275
Z	X	0.00214592274678
X	X	0.0198497854077
Y	X	0.0219957081545
^	X	0.275214592275
R	X	0.0118025751073
S	X	0.0112660944206
P	X	0.0547210300429
Q	X	0.00107296137339
V	X	0.00536480686695
W	X	0.00536480686695
T	X	0.0772532188841
U	X	0.0187768240343
C	K	0.00726423660656
B	K	0.00895057724737
A	K	0.0621351666883
G	K	0.00285380723829
F	K	0.00661564405241
E	K	0.281489168504
D	K	0.0049293034116
K	K	0.0070047995849
J	K	0.00272408872746
I	K	0.133480347646
H	K	0.00752367362823
O	K	0.0395641458036
N	K	0.0348942794137
M	K	0.0070047995849
L	K	0.0295758204696
S	K	0.0874302763004
R	K	0.0149176287456
Q	K	0.00103774808665
P	K	0.00674536256324
W	K	0.0073939551174
V	K	0.00142690361915
U	K	0.0136204436373
T	K	0.0150473472565
Z	K	0.000129718510831
Y	K	0.0315215981321
X	K	0.000259437021663
^	K	0.184459722402
N	D	0.00809530380387
O	D	0.0974656179569
L	D	0.0211121843521
M	D	0.0102111218435
J	D	0.00303573892645
K	D	0.00133388528587
H	D	0.00758934731613
I	D	0.0976496021342
F	D	0.00717538291707
G	D	0.0150867025436
D	D	0.0277816107815
E	D	0.173083114852
B	D	0.0111310427303
C	D	0.0122349477945
A	D	0.0859206108275
^	D	0.234395841958
Z	D	0.000827928798123
X	D	0.000735936709443
Y	D	0.0208822041304
V	D	0.00294374683777
W	D	0.00814129984821
T	D	0.0165585759625
U	D	0.0294374683777
R	D	0.0435122579458
S	D	0.0560231820063
P	D	0.00699139873971
Q	D	0.000643944620763
X	^	0.00166461409373
Y	^	0.00771406531242
Z	^	0.00385703265621
P	^	0.0597637059994
Q	^	0.00366756438538
R	^	0.0543773937286
S	^	0.112733621145
T	^	0.0696160560826
U	^	0.0158070671665
V	^	0.0112868955624
W	^	0.026430823781
H	^	0.0390033968954
I	^	0.0377177193434
J	^	0.0132763124061
K	^	0.0137093827394
L	^	0.0443626422704
M	^	0.0522391089578
N	^	0.0272834309997
O	^	0.0360125049059
A	^	0.0771812534679
B	^	0.0596825053119
C	^	0.0685469136972
D	^	0.0492617504162
E	^	0.0427792288641
F	^	0.0356200349163
G	^	0.0364049748955
Q	Q	0.00121212121212
P	Q	0.00242424242424
S	Q	0.0278787878788
R	Q	0.0109090909091
U	Q	0.813333333333
T	Q	0.0133333333333
W	Q	0.00606060606061
V	Q	0.00121212121212
Y	Q	0.00121212121212
X	Q	0.00121212121212
Z	Q	0.00121212121212
^	Q	0.0509090909091
A	Q	0.0193939393939
C	Q	0.00121212121212
B	Q	0.00969696969697
E	Q	0.00484848484848
D	Q	0.00363636363636
G	Q	0.00121212121212
F	Q	0.00121212121212
I	Q	0.0109090909091
H	Q	0.00121212121212
K	Q	0.00121212121212
J	Q	0.00121212121212
M	Q	0.00363636363636
L	Q	0.00121212121212
O	Q	0.00727272727273
N	Q	0.00121212121212
G	W	0.00301493764561
F	W	0.00438536384816
E	W	0.152939564204
D	W	0.0102781965191
C	W	0.00616691791147
B	W	0.0109634096204
A	W	0.197752501028
O	W	0.101000411128
N	W	0.0545429628614
M	W	0.006989173633
L	W	0.0234342880636
K	W	0.00630396053173
J	W	0.000822255721529
I	W	0.146772646293
H	W	0.0724955461148
W	W	0.00493353432918
V	W	0.00137042620255
U	W	0.00397423598739
O	J	0.283018867925
S	W	0.0437165958613
I	J	0.0593784683685
J	J	0.00332963374029
K	J	0.00499445061043
D	J	0.00277469478357
^	W	0.090311086748
G	J	0.00110987791343
A	J	0.251942286349
Y	W	0.012882006304
C	J	0.003884572697
O	X	0.0359442060086
Y	Y	0.00240787269682
H	Z	0.00383351588171
R	P	0.0781701646349
S	P	0.0566796531356
P	P	0.0408445393993
Q	P	0.000377026517532
V	P	0.000565539776298
W	P	0.00163378157597
T	P	0.0302877969084
U	P	0.0355033304009
Z	P	0.00031418876461
X	P	0.000125675505844
Y	P	0.0109966067613
^	P	0.10431066985
B	P	0.00421012944577
C	P	0.0062837752922
A	P	0.137174814629
F	P	0.00395877843408
G	P	0.00263918562272
D	P	0.00477566922207
E	P	0.174563277617
J	P	0.00062837752922
K	P	0.00182229483474
H	P	0.0289053663441
I	P	0.097398517029
N	P	0.00339323865779
O	P	0.106258640191
L	P	0.0643458589921
M	P	0.00383310292824
K	C	0.097382868717
J	C	0.000373114439529
I	C	0.0405095677203
H	C	0.141516976707
O	C	0.148766057246
N	C	0.00255849901391
M	C	0.00298491551623
L	C	0.0529822504131
C	C	0.0157774105858
B	C	0.00234529076275
A	C	0.15820052236
G	C	0.00111934331859
F	C	0.00117264538138
E	C	0.118437183519
D	C	0.00383774852087
Z	C	0.000586322690688
Y	C	0.00868823623474
X	C	0.000426416502319
^	C	0.0435477852993
S	C	0.0136453280742
R	C	0.0580459463781
Q	C	0.000746228879058
P	C	0.0020787804488
W	C	0.000692926816268
V	C	0.00101273919301
U	C	0.0363520068227
T	C	0.0462128884388
Z	B	0.00024975024975
V	M	0.00120903595291
Y	I	0.00043388653867
A	V	0.133752950433
B	V	0.000590086546027
Z	I	0.0085150233214
D	V	0.00314712824548
E	V	0.520653029111
F	V	0.000786782061369
^	I	0.0352261633583
Q	I	0.00135589543334
I	V	0.18961447679
S	I	0.0891636836967
R	I	0.0479444625231
U	I	0.00322703113136
T	I	0.0902484000434
W	I	0.00159995661135
O	V	0.0617623918175
I	I	0.00485410565137
H	I	0.00165419242868
K	I	0.0087590844994
S	V	0.00845790715972
M	I	0.036961709513
L	I	0.0666829374119
O	I	0.0365278229743
N	I	0.234108905521
A	I	0.0388057273023
Y	V	0.0100314712825
C	I	0.0683913656579
B	I	0.0110912246448
E	I	0.0662490508732
D	I	0.042981885237
G	I	0.0362566438876
F	I	0.0145894348628
D	B	0.0028305028305
E	B	0.178321678322
F	B	0.00158175158175
G	B	0.001332001332
A	B	0.18315018315
B	B	0.0271395271395
C	B	0.00557775557776
L	B	0.0943223443223
M	B	0.00324675324675
N	B	0.00291375291375
O	B	0.142440892441
H	B	0.001665001665
I	B	0.0818348318348
J	B	0.00208125208125
K	B	0.000749250749251
T	B	0.00616050616051
U	B	0.0733433233433
V	B	0.000832500832501
W	B	0.0018315018315
P	B	0.001665001665
Q	B	0.000666000666001
R	B	0.0834165834166
S	B	0.030636030636
^	B	0.0431235431235
X	B	8.32500832501e-05
Y	B	0.0288045288045
O	O	0.0588607594937
N	O	0.156134371957
M	O	0.0410905550146
L	O	0.0602726387537
K	O	0.0156280428432
J	O	0.00153359298929
I	O	0.0187925998053
H	O	0.00873904576436
G	O	0.016893865628
F	O	0.0349074975657
E	O	0.0148490749757
D	O	0.0308422590068
C	O	0.0242697176241
B	O	0.0187439143135
A	O	0.02358812074
^	O	0.0612220058423
Z	O	0.00306718597858
Y	O	0.00944498539435
X	O	0.00713242453749
W	O	0.0404333008763
V	O	0.0205696202532
U	O	0.0687925998053
T	O	0.0595910418695
S	O	0.051752677702
R	O	0.112244401168
Q	O	0.000486854917235
P	O	0.0401168451801
Z	H	0.000123601755145
X	H	0.000185402632717
Y	H	0.0137815956987
^	H	0.0939991347877
R	H	0.0250911562944
S	H	0.016624436067
P	H	0.0042642605525
Q	H	0.00049440702058
V	H	0.00049440702058
W	H	0.00364625177678
T	H	0.036277115135
U	H	0.0349174958284
J	H	0.000865212286014
K	H	0.00105061491873
H	H	0.00519127371609
I	H	0.107162721711
N	H	0.00982633953402
O	H	0.159322662382
L	H	0.00828131759471
M	H	0.00834311847228
B	H	0.00512947283851
C	H	0.00506767196094
A	H	0.173227859836
F	H	0.00278103949076
G	H	0.00185402632717
D	H	0.00346084914406
E	H	0.278536555219
^	U	0.0271586439408
Y	U	0.00362115252544
X	U	0.00374601985391
Z	U	0.00468252481738
U	U	0.00243491290504
T	U	0.109508647062
W	U	0.00149840794156
V	U	0.00380845351814
Q	U	0.000374601985391
P	U	0.0747330960854
S	U	0.118124492726
R	U	0.1239308235
M	U	0.0583130423925
L	U	0.0638072048449
O	U	0.00524442779547
N	U	0.133046138478
I	U	0.0315914341013
H	U	0.00218517824811
K	U	0.00561902978086
J	U	0.000686770306549
E	U	0.0496347630642
D	U	0.0343385153275
G	U	0.0314665667728
F	U	0.0100518199413
A	U	0.0310295311232
C	U	0.0353998876194
B	U	0.0339639133421
H	N	0.00671699789053
I	N	0.059009659154
J	N	0.0027478627734
K	N	0.0189852337071
L	N	0.00818807594093
M	N	0.00610636171866
N	N	0.0263683801488
O	N	0.0636726990119
A	N	0.0694737426446
B	N	0.00727212168314
C	N	0.0367491950705
D	N	0.082657932719
E	N	0.138558898634
F	N	0.00818807594093
G	N	0.100005551238
X	N	0.00111024758521
Y	N	0.0133507272122
Z	N	0.00249805706673
^	N	0.150355279227
P	N	0.00582879982236
Q	N	0.00097146663706
R	N	0.00705007216609
S	N	0.0616464971689
T	N	0.101060286444
U	N	0.0147662928833
V	N	0.003302986566
W	N	0.00335849894526
N	V	0.000983477576711
^	T	0.153745732075
Z	T	0.00353986744326
X	T	0.00020084354288
Y	T	0.0199588270737
V	T	0.0022594898574
W	T	0.0106949186584
T	T	0.0455663787909
U	T	0.0258837115887
R	T	0.0569642498494
S	T	0.0677093793935
P	T	0.00579935730066
Q	T	0.00017573810002
N	T	0.00519682667202
O	T	0.10376079534
L	T	0.015967061659
M	T	0.006276360715
J	T	0.00102932315726
K	T	0.00102932315726
H	T	0.0999949789114
I	T	0.0857601928098
F	T	0.00459429604338
G	T	0.00296244225748
D	T	0.0046445069291
E	T	0.157611970275
B	T	0.0084103233581
C	T	0.0143101024302
A	T	0.095953002611
A	A	0.00457088667615
C	A	0.0457657657658
B	A	0.0273684210526
E	A	0.00517780938834
D	A	0.0484400189663
G	A	0.0303840682788
F	A	0.0106021811285
I	A	0.038217164533
H	A	0.00971076339497
K	A	0.0202939781887
J	A	0.00235182550972
M	A	0.0480227596017
L	A	0.0926126126126
O	A	0.00252252252252
N	A	0.131228070175
Q	A	0.00125177809388
P	A	0.0320720720721
S	A	0.0776481744903
R	A	0.128838311996
U	A	0.0149454717876
T	A	0.0988335704125
W	A	0.0147368421053
V	A	0.016386913229
Y	A	0.0265908013276
X	A	0.0060502607871
Z	A	0.0060502607871
^	A	0.0593266951162
K	V	0.000196695515342
